Lab 5: Student Evaluations of Teaching
…
4. What is the unit of observation (i.e. a single row in the dataset) identified by?

One row in this data is unique to one semester’s worth of evaluations, per teacher, per course.

# you may want to use code to answer this question
unique(teacher_evals)

# A tibble: 8,015 × 22
   course_id  teacher_id question_no no_participants resp_share SET_score_avg
   <chr>           <dbl>       <dbl>           <dbl>      <dbl>         <dbl>
 1 0000-BHP        54655         901             255     0.212           4.22
 2 0000-BHP        54655         903             255     0.208           3.68
 3 0000-BHP        54655         904             255     0.212           3.74
 4 0000-BHP        54655         905             255     0.208           3.30
 5 0000-BHP        54655         907             255     0.208           3.68
 6 0000-BW-NP       3432         902             998     0.0411          4.05
 7 0000-BW-NP       3432         903             998     0.0421          3.95
 8 0000-BW-NP       3432         906             998     0.0411          4.15
 9 0000-BW-NP       3432         909             998     0.0411          4.07
10 0000-BW-NP       3773         901            1003     0.0538          4.06
# ℹ 8,005 more rows
# ℹ 16 more variables: stud_grade_avg <dbl>, stud_grade_std <dbl>,
#   stud_grade_var_coef <dbl>, percent_failed <dbl>, stud_grade_avg_cur <dbl>,
#   stud_grade_std_cur <dbl>, stud_grade_var_coef_cur <dbl>,
#   percent_failed_cur <dbl>, class_duration <dbl>, weekday <chr>,
#   time_of_day <chr>, SET_score_1sem <dbl>, maximum_score <dbl>,
#   academic_degree <chr>, seniority <dbl>, gender <chr>
…
